{
    "naming_schemes": {
        "COMMON_SCHEME_1": [
            "Helm",
            "Mail",
            "Vambraces",
            "Coil",
            "Greaves"
        ],
        "COMMON_SCHEME_2": [
            "Helm",
            "Mail",
            "Vambraces",
            "Tassets",
            "Greaves"
        ],
        "COMMON_SCHEME_3": [
            "Helm",
            "Mail",
            "Braces",
            "Coil",
            "Greaves"
        ],
        "BUFF_BODY_SCHEME": [
            "(invalid)",
            "Chest",
            "Arms",
            "Waist",
            "Legs"
        ]
    },
    "armour": [
        {
            "set": "Teostra",
            "discriminator": "HIGH_RANK",
            "rarity": 8,
            
            "prefix": "Kaiser",
            "naming_scheme": "COMMON_SCHEME_1",

            "set_bonus": "TEOSTRA_TECHNIQUE",

            "HR_ALPHA": {
                "HEAD" : [[],  {"LATENT_POWER":       2                       }],
                "CHEST": [[],  {"SPECIAL_AMMO_BOOST": 2, "LATENT_POWER":     1}],
                "ARMS" : [[1], {"WEAKNESS_EXPLOIT":   2                       }],
                "WAIST": [[],  {"BLAST_ATTACK":       2, "WEAKNESS_EXPLOIT": 1}],
                "LEGS" : [[],  {"LATENT_POWER":       2, "BLAST_ATTACK":     1}]
            },
            "HR_BETA": {
                "HEAD" : [[2],   {"LATENT_POWER":       1}],
                "CHEST": [[1,1], {"SPECIAL_AMMO_BOOST": 2}],
                "ARMS" : [[3],   {"WEAKNESS_EXPLOIT":   1}],
                "WAIST": [[2],   {"BLAST_ATTACK":       2}],
                "LEGS" : [[1],   {"LATENT_POWER":       2}]
            },
            "HR_GAMMA": {
                "HEAD" : [[2,2], {"CRITICAL_EYE": 2                       }],
                "CHEST": [[2],   {"LATENT_POWER": 2, "WEAKNESS_EXPLOIT": 1}],
                "ARMS" : [[3],   {"CRITICAL_EYE": 3                       }],
                "WAIST": [[1,1], {"LATENT_POWER": 3                       }],
                "LEGS" : [[3,1], {"CRITICAL_EYE": 2                       }]
            }
        },
        {
            "set": "Brute Tigrex",
            "discriminator": "MASTER_RANK",
            "rarity": 11,
            
            "prefix": "Rex Roar",
            "naming_scheme": "COMMON_SCHEME_3",

            "set_bonus": "TIGREX_ESSENCE",

            "MR_ALPHA_PLUS": {
                "HEAD" : [[3], {"ATTACK_BOOST": 3, "FREE_MEAL":        1}],
                "CHEST": [[3], {"ATTACK_BOOST": 3, "WEAKNESS_EXPLOIT": 1}],
                "ARMS" : [[3], {"HEALTH_BOOST": 3, "ATTACK_BOOST":     2}],
                "WAIST": [[2], {"RECOVERY_UP":  3, "WEAKNESS_EXPLOIT": 1}],
                "LEGS" : [[1], {"AGITATOR":     3, "WEAKNESS_EXPLOIT": 1}]
            },
            "MR_BETA_PLUS": {
                "HEAD" : [[4],   {"ATTACK_BOOST": 2, "FREE_MEAL":        1}],
                "CHEST": [[4,1], {"ATTACK_BOOST": 2, "WEAKNESS_EXPLOIT": 1}],
                "ARMS" : [[4],   {"HEALTH_BOOST": 2, "ATTACK_BOOST":     2}],
                "WAIST": [[4],   {"RECOVERY_UP":  2, "WEAKNESS_EXPLOIT": 1}],
                "LEGS" : [[4],   {"AGITATOR":     2, "WEAKNESS_EXPLOIT": 1}]
            }
        },
        {
            "set": "Damascus",
            "discriminator": "MASTER_RANK",
            "rarity": 11,
            
            "prefix": "Damascus",
            "naming_scheme": "COMMON_SCHEME_1",

            "set_bonus": null,

            "MR_ALPHA_PLUS": {
                "HEAD" : [[3],   {"DEFENSE_BOOST": 3, "SPEED_SHARPENING": 2}],
                "CHEST": [[3,1], {"FOCUS":         2, "DEFENSE_BOOST":    2}],
                "ARMS" : [[2,1], {"HANDICRAFT":    2, "SPEED_SHARPENING": 1}],
                "WAIST": [[3,2], {"FOCUS":         1, "GUARD":            1}],
                "LEGS" : [[2,1], {"DEFENSE_BOOST": 2, "GUARD":            2}]
            },
            "MR_BETA_PLUS": {
                "HEAD" : [[4,1,1], {"DEFENSE_BOOST": 3            }],
                "CHEST": [[4,2,1], {"FOCUS":         2            }],
                "ARMS" : [[4,1],   {"HANDICRAFT":    2            }],
                "WAIST": [[4,3,1], {"FOCUS":         1            }],
                "LEGS" : [[4,2],   {"DEFENSE_BOOST": 2, "GUARD": 1}]
            }
        },
        {
            "set": "Velkhana",
            "discriminator": "MASTER_RANK",
            "rarity": 12,
            
            "prefix": "Rimeguard",
            "naming_scheme": "COMMON_SCHEME_1",

            "set_bonus": "VELKHANA_DIVINITY",

            "MR_ALPHA_PLUS": {
                "HEAD" : [[3,2], {"DIVINE_BLESSING": 2, "COALESCENCE":   1}],
                "CHEST": [[1],   {"QUICK_SHEATH":    2, "CRITICAL_DRAW": 1}],
                "ARMS" : [[1],   {"QUICK_SHEATH":    1, "FLINCH_FREE":   2}],
                "WAIST": [[2,1], {"FLINCH_FREE":     1, "COALESCENCE":   1}],
                "LEGS" : [[1,1], {"CRITICAL_DRAW":   2, "COALESCENCE":   1}]
            },
            "MR_BETA_PLUS": {
                "HEAD" : [[4,2], {"DIVINE_BLESSING": 2                    }],
                "CHEST": [[4,1], {"QUICK_SHEATH":    2                    }],
                "ARMS" : [[4],   {"QUICK_SHEATH":    1, "FLINCH_FREE":   1}],
                "WAIST": [[4,1], {"FLINCH_FREE":     1                    }],
                "LEGS" : [[4,1], {"CRITICAL_DRAW":   2                    }]
            }
        },
        {
            "set": "Teostra",
            "discriminator": "MASTER_RANK",
            "rarity": 12,
            
            "prefix": "Kaiser",
            "naming_scheme": "COMMON_SCHEME_1",

            "set_bonus": "TEOSTRA_TECHNIQUE",

            "MR_ALPHA_PLUS": {
                "HEAD" : [[1],   {"LATENT_POWER":     2, "CRITICAL_EYE":       2}],
                "CHEST": [[2,1], {"LATENT_POWER":     1, "SPECIAL_AMMO_BOOST": 2}],
                "ARMS" : [[2],   {"WEAKNESS_EXPLOIT": 2, "HEAT_GUARD":         1}],
                "WAIST": [[3],   {"BLAST_ATTACK":     2, "WEAKNESS_EXPLOIT":   1}],
                "LEGS" : [[2],   {"LATENT_POWER":     2, "BLAST_ATTACK":       2}]
            },
            "MR_BETA_PLUS": {
                "HEAD" : [[4],     {"LATENT_POWER":     1, "CRITICAL_EYE": 2}],
                "CHEST": [[4,1,1], {"LATENT_POWER":     1                   }],
                "ARMS" : [[4,3],   {"WEAKNESS_EXPLOIT": 1, "HEAT_GUARD":   1}],
                "WAIST": [[4,2,1], {"BLAST_ATTACK":     2                   }],
                "LEGS" : [[4],     {"LATENT_POWER":     2, "BLAST_ATTACK": 1}]
            }
        },
        {
            "set": "Yian Garuga",
            "discriminator": "MASTER_RANK",
            "rarity": 11,
            
            "prefix": "Garuga",
            "naming_scheme": "COMMON_SCHEME_2",

            "set_bonus": null,

            "MR_ALPHA_PLUS": {
                "HEAD" : [[3],   {"CRITICAL_EYE": 2, "RESENTMENT":     1}],
                "CHEST": [[1],   {"CRITICAL_EYE": 2, "EARPLUGS":       2}],
                "ARMS" : [[1],   {"EARPLUGS":     3                     }],
                "WAIST": [[1,1], {"RESENTMENT":   2, "POISON_ATTACK":  2}],
                "LEGS" : [[3,3], {"CRITICAL_EYE": 2, "PIERCING_SHOTS": 1}]
            },
            "MR_BETA_PLUS": {
                "HEAD" : [[4,2],   {"CRITICAL_EYE": 1                     }],
                "CHEST": [[4],     {"CRITICAL_EYE": 2, "EARPLUGS":       1}],
                "ARMS" : [[4],     {"EARPLUGS":     2                     }],
                "WAIST": [[4,3],   {"RESENTMENT":   2                     }],
                "LEGS" : [[4,2,2], {"CRITICAL_EYE": 2                     }]
            }
        },
        {
            "set": "Buff Body",
            "discriminator": "MASTER_RANK",
            "rarity": 11,
            
            "prefix": "Buff",
            "naming_scheme": "BUFF_BODY_SCHEME",

            "set_bonus": null,

            "MR_ALPHA_PLUS": {
                "CHEST": [[1,1,1], {"AGITATOR":     3, "FORTIFY":     1}],
                "ARMS" : [[4],     {"ATTACK_BOOST": 3, "RESUSCITATE": 1}],
                "WAIST": [[4],     {"AGITATOR":     2, "HEROICS":     3}],
                "LEGS" : [[4],     {"ATTACK_BOOST": 3, "HEROICS":     2}]
            }
        }
    ]
}
